Introduction to R
…
## 
## Attaching package: 'dplyr'

## The following objects are masked from 'package:stats':
## 
##     filter, lag

## The following objects are masked from 'package:base':
## 
##     intersect, setdiff, setequal, union

tbl_df(ds)

## # A tibble: 47 x 7
##               X Fertility Agriculture Examination Education Catholic
##          <fctr>     <dbl>       <dbl>       <int>     <int>    <dbl>
## 1    Courtelary      80.2        17.0          15        12     9.96
## 2      Delemont      83.1        45.1           6         9    84.84
## 3  Franches-Mnt      92.5        39.7           5         5    93.40
## 4       Moutier      85.8        36.5          12         7    33.77
## 5    Neuveville      76.9        43.5          17        15     5.16
## 6    Porrentruy      76.1        35.3           9         7    90.57
## 7         Broye      83.8        70.2          16         7    92.85
## 8         Glane      92.4        67.8          14         8    97.16
## 9       Gruyere      82.4        53.3          12         7    97.67
## 10       Sarine      82.9        45.2          16        13    91.38
## # ... with 37 more rows, and 1 more variables: Infant.Mortality <dbl>

ds %>% tbl_df()

## # A tibble: 47 x 7
##               X Fertility Agriculture Examination Education Catholic
##          <fctr>     <dbl>       <dbl>       <int>     <int>    <dbl>
## 1    Courtelary      80.2        17.0          15        12     9.96
## 2      Delemont      83.1        45.1           6         9    84.84
## 3  Franches-Mnt      92.5        39.7           5         5    93.40
## 4       Moutier      85.8        36.5          12         7    33.77
## 5    Neuveville      76.9        43.5          17        15     5.16
## 6    Porrentruy      76.1        35.3           9         7    90.57
## 7         Broye      83.8        70.2          16         7    92.85
## 8         Glane      92.4        67.8          14         8    97.16
## 9       Gruyere      82.4        53.3          12         7    97.67
## 10       Sarine      82.9        45.2          16        13    91.38
## # ... with 37 more rows, and 1 more variables: Infant.Mortality <dbl>

ds %>% tbl_df

## # A tibble: 47 x 7
##               X Fertility Agriculture Examination Education Catholic
##          <fctr>     <dbl>       <dbl>       <int>     <int>    <dbl>
## 1    Courtelary      80.2        17.0          15        12     9.96
## 2      Delemont      83.1        45.1           6         9    84.84
## 3  Franches-Mnt      92.5        39.7           5         5    93.40
## 4       Moutier      85.8        36.5          12         7    33.77
## 5    Neuveville      76.9        43.5          17        15     5.16
## 6    Porrentruy      76.1        35.3           9         7    90.57
## 7         Broye      83.8        70.2          16         7    92.85
## 8         Glane      92.4        67.8          14         8    97.16
## 9       Gruyere      82.4        53.3          12         7    97.67
## 10       Sarine      82.9        45.2          16        13    91.38
## # ... with 37 more rows, and 1 more variables: Infant.Mortality <dbl>

ds %>% tbl_df(.)

## # A tibble: 47 x 7
##               X Fertility Agriculture Examination Education Catholic
##          <fctr>     <dbl>       <dbl>       <int>     <int>    <dbl>
## 1    Courtelary      80.2        17.0          15        12     9.96
## 2      Delemont      83.1        45.1           6         9    84.84
## 3  Franches-Mnt      92.5        39.7           5         5    93.40
## 4       Moutier      85.8        36.5          12         7    33.77
## 5    Neuveville      76.9        43.5          17        15     5.16
## 6    Porrentruy      76.1        35.3           9         7    90.57
## 7         Broye      83.8        70.2          16         7    92.85
## 8         Glane      92.4        67.8          14         8    97.16
## 9       Gruyere      82.4        53.3          12         7    97.67
## 10       Sarine      82.9        45.2          16        13    91.38
## # ... with 37 more rows, and 1 more variables: Infant.Mortality <dbl>

## Let's put it into a new object
ds2 <- tbl_df(ds)

Again, these next lines are the same. select does as it says: select
the column from the dataset.

select(ds2, Education, Catholic, Fertility)

## # A tibble: 47 x 3
##    Education Catholic Fertility
##        <int>    <dbl>     <dbl>
## 1         12     9.96      80.2
## 2          9    84.84      83.1
## 3          5    93.40      92.5
## 4          7    33.77      85.8
## 5         15     5.16      76.9
## 6          7    90.57      76.1
## 7          7    92.85      83.8
## 8          8    97.16      92.4
## 9          7    97.67      82.4
## 10        13    91.38      82.9
## # ... with 37 more rows

ds2 %>% select(Education, Catholic, Fertility)

## # A tibble: 47 x 3
##    Education Catholic Fertility
##        <int>    <dbl>     <dbl>
## 1         12     9.96      80.2
## 2          9    84.84      83.1
## 3          5    93.40      92.5
## 4          7    33.77      85.8
## 5         15     5.16      76.9
## 6          7    90.57      76.1
## 7          7    92.85      83.8
## 8          8    97.16      92.4
## 9          7    97.67      82.4
## 10        13    91.38      82.9
## # ... with 37 more rows

ds2 %>% select(., Education, Catholic, Fertility)

## # A tibble: 47 x 3
##    Education Catholic Fertility
##        <int>    <dbl>     <dbl>
## 1         12     9.96      80.2
## 2          9    84.84      83.1
## 3          5    93.40      92.5
## 4          7    33.77      85.8
## 5         15     5.16      76.9
## 6          7    90.57      76.1
## 7          7    92.85      83.8
## 8          8    97.16      92.4
## 9          7    97.67      82.4
## 10        13    91.38      82.9
## # ... with 37 more rows

You can rename columns either using rename or select (the new name
is on the left hand side, so newname = oldname).  However, with the
select command, only that column gets selected, while rename
selects all columns.

ds2 %>% rename(County = X)

## # A tibble: 47 x 7
##          County Fertility Agriculture Examination Education Catholic
##          <fctr>     <dbl>       <dbl>       <int>     <int>    <dbl>
## 1    Courtelary      80.2        17.0          15        12     9.96
## 2      Delemont      83.1        45.1           6         9    84.84
## 3  Franches-Mnt      92.5        39.7           5         5    93.40
## 4       Moutier      85.8        36.5          12         7    33.77
## 5    Neuveville      76.9        43.5          17        15     5.16
## 6    Porrentruy      76.1        35.3           9         7    90.57
## 7         Broye      83.8        70.2          16         7    92.85
## 8         Glane      92.4        67.8          14         8    97.16
## 9       Gruyere      82.4        53.3          12         7    97.67
## 10       Sarine      82.9        45.2          16        13    91.38
## # ... with 37 more rows, and 1 more variables: Infant.Mortality <dbl>

ds2 %>% select(County = X)

## # A tibble: 47 x 1
##          County
##          <fctr>
## 1    Courtelary
## 2      Delemont
## 3  Franches-Mnt
## 4       Moutier
## 5    Neuveville
## 6    Porrentruy
## 7         Broye
## 8         Glane
## 9       Gruyere
## 10       Sarine
## # ... with 37 more rows
…
We can start chaining these commands together using the %>% command.
There is no limit to how long a chain can be.  arrange
sorts/orders/re-arranges the column Education in ascending
order. mutate creates a new column.

ds2 %>%
  filter(Catholic > 20) %>%
  select(Education, Fertility) 

## # A tibble: 21 x 2
##    Education Fertility
##        <int>     <dbl>
## 1          9      83.1
## 2          5      92.5
## 3          7      85.8
## 4          7      76.1
## 5          7      83.8
## 6          8      92.4
## 7          7      82.4
## 8         13      82.9
## 9          6      87.1
## 10         2      68.3
## # ... with 11 more rows

ds2 %>%
  filter(Catholic > 20) %>%
  select(County = X, Education, Fertility, Agriculture) %>%
  arrange(Education) %>%
  mutate(infertile = ifelse(Fertility < 50, 'yes', 'no'),
         testing = 'Yes' ## Create a testing column to show how mutate works.
         )

## # A tibble: 21 x 6
##          County Education Fertility Agriculture infertile testing
##          <fctr>     <int>     <dbl>       <dbl>     <chr>   <chr>
## 1     Echallens         2      68.3        72.6        no     Yes
## 2       Conthey         2      75.5        85.9        no     Yes
## 3        Herens         2      77.3        89.7        no     Yes
## 4       Monthey         3      79.4        64.9        no     Yes
## 5        Sierre         3      92.2        84.6        no     Yes
## 6  Franches-Mnt         5      92.5        39.7        no     Yes
## 7       Veveyse         6      87.1        64.5        no     Yes
## 8     Entremont         6      69.3        84.9        no     Yes
## 9      Martigwy         6      70.5        78.2        no     Yes
## 10      Moutier         7      85.8        36.5        no     Yes
## # ... with 11 more rows

To get the data into a nicer and more analyable format, you can use
the tidyr package.  See what gather does in the code below.  Then
see what spread does.  Note that you can remove a column by having a
minus - sign in front of a variable when you use select.

library(tidyr)
## Compare this:
ds2 %>%
  select(-Infant.Mortality) %>%
  rename(County = X)

## # A tibble: 47 x 6
##          County Fertility Agriculture Examination Education Catholic
##          <fctr>     <dbl>       <dbl>       <int>     <int>    <dbl>
## 1    Courtelary      80.2        17.0          15        12     9.96
## 2      Delemont      83.1        45.1           6         9    84.84
## 3  Franches-Mnt      92.5        39.7           5         5    93.40
## 4       Moutier      85.8        36.5          12         7    33.77
## 5    Neuveville      76.9        43.5          17        15     5.16
## 6    Porrentruy      76.1        35.3           9         7    90.57
## 7         Broye      83.8        70.2          16         7    92.85
## 8         Glane      92.4        67.8          14         8    97.16
## 9       Gruyere      82.4        53.3          12         7    97.67
## 10       Sarine      82.9        45.2          16        13    91.38
## # ... with 37 more rows

## With this:
ds2 %>%
  select(-Infant.Mortality) %>%
  rename(County = X) %>%
  gather(Measure, Value, -County)

## # A tibble: 235 x 3
##          County   Measure Value
##          <fctr>     <chr> <dbl>
## 1    Courtelary Fertility  80.2
## 2      Delemont Fertility  83.1
## 3  Franches-Mnt Fertility  92.5
## 4       Moutier Fertility  85.8
## 5    Neuveville Fertility  76.9
## 6    Porrentruy Fertility  76.1
## 7         Broye Fertility  83.8
## 8         Glane Fertility  92.4
## 9       Gruyere Fertility  82.4
## 10       Sarine Fertility  82.9
## # ... with 225 more rows

## And back again:
ds2 %>%
  select(-Infant.Mortality) %>%
  rename(County = X) %>%
  gather(Measure, Value, -County) %>%
  spread(Measure, Value)

## # A tibble: 47 x 6
##        County Agriculture Catholic Education Examination Fertility
## *      <fctr>       <dbl>    <dbl>     <dbl>       <dbl>     <dbl>
## 1       Aigle        62.0     8.52        12          21      64.1
## 2     Aubonne        67.5     2.27         7          14      66.9
## 3    Avenches        60.7     4.43        12          19      68.9
## 4      Boudry        38.4     5.62        12          26      70.4
## 5       Broye        70.2    92.85         7          16      83.8
## 6     Conthey        85.9    99.71         2           3      75.5
## 7    Cossonay        69.3     2.82         5          22      61.7
## 8  Courtelary        17.0     9.96        12          15      80.2
## 9    Delemont        45.1    84.84         9           6      83.1
## 10  Echallens        72.6    24.20         2          18      68.3
## # ... with 37 more rows
…
